[
    {
        "name": "All",
        "id": 1,
        "sort_order": 0
    },
    {
        "name": "Food",
        "id": 2,
        "sort_order": 1
    },
    {
        "name": "Drinks",
        "id": 3,
        "sort_order": 2
    },
    {
        "name": "Snakes",
        "id": 4,
        "sort_order": 3
    },
    {
        "name": "Packages",
        "id": 5,
        "sort_order": 4
    }
]