[
    {
        "id": 101,
        "product": "Mango Smoothie",
        "revenue": 300,
        "net_profit": 250,
        "quantity": 15
    },
    {
        "id": 102,
        "product": "Avocado Salad",
        "revenue": 120,
        "net_profit": 90,
        "quantity": 10
    },
    {
        "id": 103,
        "product": "Teriyaki Chicken",
        "revenue": 210,
        "net_profit": 180,
        "quantity": 12
    },
    {
        "id": 104,
        "product": "Beef Ramen",
        "revenue": 192,
        "net_profit": 160,
        "quantity": 8
    },
    {
        "id": 105,
        "product": "Edamame",
        "revenue": 54,
        "net_profit": 40,
        "quantity": 6
    },
    {
        "id": 106,
        "product": "Green Tea Ice Cream",
        "revenue": 120,
        "net_profit": 100,
        "quantity": 5
    },
    {
        "id": 107,
        "product": "Matcha Latte",
        "revenue": 25,
        "net_profit": 20,
        "quantity": 3
    },
    {
        "id": 108,
        "product": "Cappuccino",
        "revenue": 16,
        "net_profit": 12,
        "quantity": 2
    },
    {
        "id": 109,
        "product": "Chai Tea",
        "revenue": 18,
        "net_profit": 15,
        "quantity": 3
    },
    {
        "id": 110,
        "product": "Iced Coffee",
        "revenue": 13.75,
        "net_profit": 11.5,
        "quantity": 2.5
    }
]